[
    {
        "titre": "Demande de dépanage",
        "id": "1",
        "article": "telephone",
        "point-de-ventz": "Accacia",
        "Numero-serie": "00000",
        "etat": "secondary",
        "date": "02/01/2022",
        "description": "blabla bla blabla"
    },
    {
        "titre": "Demande de dépanage",
        "id": "2",
        "article": "television",
        "point-de-ventz": "Jouvence",
        "Numero-serie": "11111",
        "etat": "secondary",
        "date": "02/01/2022",
        "description": "blabla bla blabla"
    },
    {
        "titre": "Demande de d'assiqtance",
        "id": "3",
        "article": "Moulinex",
        "point-de-ventz": "Mendong",
        "Numero-serie": "22222",
        "etat": "secondary",
        "description": "blabla bla blabla",
        "date": "02/01/2022"
    }
]